{"response":{"status":"ok","userTier":"developer","total":113017,"startIndex":1,"pageSize":10,"currentPage":1,"pages":11302,"edition":{"id":"uk-news","webTitle":"UK news","webUrl":"https://www.theguardian.com/uk-news","apiUrl":"https://content.guardianapis.com/uk-news","code":"default"},"section":{"id":"uk-news","webTitle":"UK news","webUrl":"https://www.theguardian.com/uk-news","apiUrl":"https://content.guardianapis.com/uk-news","editions":[{"id":"uk-news","webTitle":"UK news","webUrl":"https://www.theguardian.com/uk-news","apiUrl":"https://content.guardianapis.com/uk-news","code":"default"}]},"results":[{"id":"uk-news/2016/aug/21/greater-manchester-has-more-olympic-golds-than-japan-and-france","type":"article","sectionId":"uk-news","sectionName":"UK news","webPublicationDate":"2016-08-21T13:38:06Z","webTitle":"Greater Manchester has more Olympic golds than Japan and France","webUrl":"https://www.theguardian.com/uk-news/2016/aug/21/greater-manchester-has-more-olympic-golds-than-japan-and-france","apiUrl":"https://content.guardianapis.com/uk-news/2016/aug/21/greater-manchester-has-more-olympic-golds-than-japan-and-france","isHosted":false},{"id":"uk-news/2016/aug/21/woman-awarded-2m-compensation-over-near-drowning-16-years-ago","type":"article","sectionId":"uk-news","sectionName":"UK news","webPublicationDate":"2016-08-21T12:41:03Z","webTitle":"Woman gets £2m   over near-drowning in school swimming lesson","webUrl":"https://www.theguardian.com/uk-news/2016/aug/21/woman-awarded-2m-compensation-over-near-drowning-16-years-ago","apiUrl":"https://content.guardianapis.com/uk-news/2016/aug/21/woman-awarded-2m-compensation-over-near-drowning-16-years-ago","isHosted":false},{"id":"uk-news/2016/aug/21/british-pig-farmers-china-pork-brexit","type":"article","sectionId":"uk-news","sectionName":"UK news","webPublicationDate":"2016-08-21T11:30:15Z","webTitle":"Pigs, Brexit and China: what’s the future for Britain’s farmers?","webUrl":"https://www.theguardian.com/uk-news/2016/aug/21/british-pig-farmers-china-pork-brexit","apiUrl":"https://content.guardianapis.com/uk-news/2016/aug/21/british-pig-farmers-china-pork-brexit","isHosted":false},{"id":"uk-news/2016/aug/21/mother-and-son-killed-aberdeen-cornwall-winds","type":"article","sectionId":"uk-news","sectionName":"UK news","webPublicationDate":"2016-08-21T07:51:22Z","webTitle":"Mother and son killed as fierce winds and high waves hit UK coasts","webUrl":"https://www.theguardian.com/uk-news/2016/aug/21/mother-and-son-killed-aberdeen-cornwall-winds","apiUrl":"https://content.guardianapis.com/uk-news/2016/aug/21/mother-and-son-killed-aberdeen-cornwall-winds","isHosted":false},{"id":"uk-news/2016/aug/21/michael-birch-bebo-woolsery-devon-pub-village-life","type":"article","sectionId":"uk-news","sectionName":"UK news","webPublicationDate":"2016-08-20T23:05:01Z","webTitle":"Life in the Devon village saved by San Francisco tech millionaire","webUrl":"https://www.theguardian.com/uk-news/2016/aug/21/michael-birch-bebo-woolsery-devon-pub-village-life","apiUrl":"https://content.guardianapis.com/uk-news/2016/aug/21/michael-birch-bebo-woolsery-devon-pub-village-life","isHosted":false},{"id":"uk-news/2016/aug/20/night-tube-economic-boost-shift-workers","type":"article","sectionId":"uk-news","sectionName":"UK news","webPublicationDate":"2016-08-20T22:22:00Z","webTitle":"London night tube: it’s not just clubbers who can expect to gain","webUrl":"https://www.theguardian.com/uk-news/2016/aug/20/night-tube-economic-boost-shift-workers","apiUrl":"https://content.guardianapis.com/uk-news/2016/aug/20/night-tube-economic-boost-shift-workers","isHosted":false},{"id":"uk-news/2016/aug/20/edinburgh-fringe-chilcot-recital-ends-after-284-hours-and-45-minutes","type":"article","sectionId":"uk-news","sectionName":"UK news","webPublicationDate":"2016-08-20T16:02:42Z","webTitle":"Edinburgh fringe Chilcot recital ends after 284 hours and 45 minutes","webUrl":"https://www.theguardian.com/uk-news/2016/aug/20/edinburgh-fringe-chilcot-recital-ends-after-284-hours-and-45-minutes","apiUrl":"https://content.guardianapis.com/uk-news/2016/aug/20/edinburgh-fringe-chilcot-recital-ends-after-284-hours-and-45-minutes","isHosted":false},{"id":"uk-news/2016/aug/20/man-swept-out-to-sea-by-10ft-wave-in-newquay-cornwall-dies","type":"article","sectionId":"uk-news","sectionName":"UK news","webPublicationDate":"2016-08-20T10:32:31Z","webTitle":"Man swept out to sea by 10ft wave in Cornwall dies","webUrl":"https://www.theguardian.com/uk-news/2016/aug/20/man-swept-out-to-sea-by-10ft-wave-in-newquay-cornwall-dies","apiUrl":"https://content.guardianapis.com/uk-news/2016/aug/20/man-swept-out-to-sea-by-10ft-wave-in-newquay-cornwall-dies","isHosted":false},{"id":"uk-news/2016/aug/20/london-night-tube-meet-people-travelled-first-night-sadiq-khan","type":"article","sectionId":"uk-news","sectionName":"UK news","webPublicationDate":"2016-08-20T09:26:03Z","webTitle":"London night tube: meet the people who travelled on the first night","webUrl":"https://www.theguardian.com/uk-news/2016/aug/20/london-night-tube-meet-people-travelled-first-night-sadiq-khan","apiUrl":"https://content.guardianapis.com/uk-news/2016/aug/20/london-night-tube-meet-people-travelled-first-night-sadiq-khan","isHosted":false},{"id":"culture/2016/aug/20/what-do-you-love-about-cornwall-share-your-stories-and-photographs","type":"article","sectionId":"uk-news","sectionName":"UK news","webPublicationDate":"2016-08-20T06:55:07Z","webTitle":"What do you love about Cornwall? Share your stories and photographs","webUrl":"https://www.theguardian.com/culture/2016/aug/20/what-do-you-love-about-cornwall-share-your-stories-and-photographs","apiUrl":"https://content.guardianapis.com/culture/2016/aug/20/what-do-you-love-about-cornwall-share-your-stories-and-photographs","isHosted":false}]}}
